%YAML 1.1
%TAG !u! tag:unity3d.com,2011:
--- !u!1045 &1
EditorBuildSettings:
  m_ObjectHideFlags: 0
  serializedVersion: 2
  m_Scenes:
  - enabled: 1
    path: Assets/Scenes/Title.unity
    guid: d44574de4c6a6654e8fbb75b96e17ef9
  - enabled: 1
    path: Assets/Scenes/Main.unity
    guid: 9fc0d4010bbf28b4594072e72b8655ab
  m_configObjects: {}
